<svg xmlns="http://www.w3.org/2000/svg" width="16.154" height="27.369" viewBox="0 0 16.154 27.369">
    <defs>
        <style>
            .cls-1{fill:#0083e3}
        </style>
    </defs>
    <path id="Logo" d="M12660 6126.021v-8.57l7.979-4.365 8.176 4.365v8.57l-8.176 4.349zm2.294-12.022a1 1 0 1 1 1 1 1 1 0 0 1-1.001-.999zm9-1.5a.5.5 0 1 1 .5.5.5.5 0 0 1-.502-.499zm-5-4a1.5 1.5 0 1 1 1.5 1.5 1.5 1.5 0 0 1-1.499-1.499zm3-4a.5.5 0 1 1 .5.5.5.5 0 0 1-.499-.499zm-4-.5a1 1 0 1 1 1 1 1 1 0 0 1-1.001-.999z" class="cls-1" transform="translate(-12660 -6103.001)"/>
</svg>
